@startuml

title __APPLICATION's Class Diagram__\n

  namespace application {
    class application.BarrierRepo {
        - barrierAggregateList : List<BarrierAggregate>
        + addBarrierAggregateToList()
        + getBarrierAggregateList()
        + removeBarrierAggregateFromList()
    }
  }
  

  namespace application {
    class application.CharacterRepo {
        + CharacterRepo()
        + getCharacter()
    }
  }
  

  namespace application {
    class application.GameLoop {
        - gameIsOver : boolean
        - score : int
        + GameLoop()
        + getBarrierRepo()
        + getCharacterRepo()
        + getJumpButtonPressed()
        + getScore()
        + isGameIsOver()
        + resolveSingleGameLoop()
    }
  }
  

  application.BarrierRepo .up.|> domain.barrier.IBarrierRepo
  application.CharacterRepo .up.|> domain.character.ICharacterRepo
  application.CharacterRepo o-- domain.character.CharacterEntity : character
  application.GameLoop o-- application.BarrierRepo : barrierRepo
  application.GameLoop o-- application.CharacterRepo : characterRepo
  application.GameLoop o-- application.services.GenerateBarrierService : generateBarrierService
  application.GameLoop o-- application.services.GameEndingConditionService : isGameOver
  application.GameLoop o-- application.services.ResolvePressedJumpButtonService : jumpButtonPressed
  application.GameLoop o-- application.services.MovingInSingleGameLoopService : movingInSingleGameLoopService


right footer


PlantUML diagram generated by SketchIt! (https://bitbucket.org/pmesmeur/sketch.it)
For more information about this tool, please contact philippe.mesmeur@gmail.com
endfooter

@enduml
