@startuml

title __CHARACTER's Class Diagram__\n

  namespace domain.character {
    class domain.character.CharacterDetailValueObject {
        - heightParameter : int
        + CharacterDetailValueObject()
        + equals()
        + getHeightParameter()
        + hashCode()
    }
  }
  

  namespace domain.character {
    class domain.character.CharacterEntity {
        - characterId : int
        - characterImage : int
        - height : int
        - heightUseCounter : int
        - isFallPressed : boolean
        - isFalling : boolean
        + CharacterEntity()
        + equals()
        + fallIsPressed()
        + getCharacterId()
        + getCharacterImage()
        + getHeight()
        + hashCode()
        + isAboveNormalEnemies()
        + move()
        + resolveJump()
        + startJump()
        - resolveFasterFall()
    }
  }
  

  namespace domain.character {
    interface domain.character.ICharacterRepo {
        {abstract} + getCharacter()
    }
  }
  

  domain.character.CharacterEntity o-- domain.character.CharacterDetailValueObject : characterDetailValueObject


right footer


PlantUML diagram generated by SketchIt! (https://bitbucket.org/pmesmeur/sketch.it)
For more information about this tool, please contact philippe.mesmeur@gmail.com
endfooter

@enduml
